﻿TXT
ParticleSimulation
	HasInfiniteLifeTime TRUE
	TotalLifeTime 10.000000
	NumEmitters 2
	EmitterType "Point"
	EmitterContents
		Name "spray7"
		Enabled TRUE
		EmitRate 15.000000
		HasInfiniteEmitCount TRUE
		MaxEmitCount 1
		hasEmitIntervals FALSE
		emitIntervalRunDuration 0.000000
		emitIntervalWaitDuration 0.000000
		ParticleLifeTime 1.200000
		ParticleMinStartLinearSpeed 100.000000
		ParticleMaxStartLinearSpeed 200.000000
		ParticleMinStartAngularSpeed 0.000000
		ParticleMaxStartAngularSpeed 0.000000
		ParticleMinStartRotation -0.087266
		ParticleMaxStartRotation 0.087266
		ParticleStartMass 1.000000
		ParticleStartColor ffb10000
		ParticleWidth 30.000000
		ParticleHeight 80.000000
		MeshName ""
		Position [ 0.000000 0.000000 -20.000000 ]
		Orientation
			 [ 1.000000 0.000000 0.000000 ]
			 [ 0.000000 1.000000 0.000000 ]
			 [ 0.000000 0.000000 1.000000 ]
		RotateAboutForward 0.000000
		RotateAboutUp 0.000000
		RotateAboutCross 0.000000
		StartTime 0.700000
		HasInfiniteLifeTime TRUE
		TotalLifeTime 0.000000
		BillboardAnchor 7
		ParticleFacing 1
		PipelineEffectID "Particle_Additive.fx"
		AreParticlesAttached TRUE
		numTextures 2
		textureName ""
		textureName ""
		textureAnimationName "sparksphase.texanim"
		textureAnimationSpawnType "RandomFrames"
		textureAnimationOnParticleFPS 0.000000
		ParticlesRotate FALSE
		MeshParticleRotationAxisType 0
		MeshParticleRotationAxis [ 0.000000 0.100000 0.000000 ]
		RotationDirectionType 0
		AngleVariance 0.069813
	EmitterType "Point"
	EmitterContents
		Name "core"
		Enabled TRUE
		EmitRate 2.000000
		HasInfiniteEmitCount TRUE
		MaxEmitCount 1
		hasEmitIntervals FALSE
		emitIntervalRunDuration 0.000000
		emitIntervalWaitDuration 0.000000
		ParticleLifeTime 2.000000
		ParticleMinStartLinearSpeed 15.000000
		ParticleMaxStartLinearSpeed 30.000000
		ParticleMinStartAngularSpeed 0.000000
		ParticleMaxStartAngularSpeed 0.000000
		ParticleMinStartRotation 0.000000
		ParticleMaxStartRotation 6.283185
		ParticleStartMass 1.000000
		ParticleStartColor ffb10000
		ParticleWidth 50.000000
		ParticleHeight 50.000000
		MeshName ""
		Position [ 0.000000 0.000000 0.000000 ]
		Orientation
			 [ 1.000000 0.000000 0.000000 ]
			 [ 0.000000 1.000000 0.000000 ]
			 [ 0.000000 0.000000 1.000000 ]
		RotateAboutForward 0.000000
		RotateAboutUp 0.000000
		RotateAboutCross 0.000000
		StartTime 0.000000
		HasInfiniteLifeTime TRUE
		TotalLifeTime 0.000000
		BillboardAnchor 0
		ParticleFacing 0
		PipelineEffectID "GS_Exhaust.fx"
		AreParticlesAttached TRUE
		numTextures 2
		textureName "phaseswirl.tga"
		textureName "cloud.dds"
		textureAnimationName ""
		textureAnimationSpawnType "RandomFrames"
		textureAnimationOnParticleFPS 0.000000
		ParticlesRotate TRUE
		MeshParticleRotationAxisType 0
		MeshParticleRotationAxis [ 0.000000 0.100000 0.000000 ]
		RotationDirectionType 2
		AngleVariance 0.000000
	NumAffectors 2
	AffectorType "Fade"
	AffectorContents
		Name "(new) Fade-1"
		Enabled TRUE
		StartTime 0.000000
		HasInfiniteLifeTime TRUE
		TotalLifeTime 0.000000
		UseYoungParticleAffectThreshold FALSE
		YoungParticleAffectThreshold 0.000000
		UseOldParticleAffectThreshold FALSE
		OldParticleAffectThreshold 0.000000
		AffectAttachedParticles TRUE
		numAttachedEmitters 2
		attachedEmitterName "spray7"
		attachedEmitterName "core"
		DoFadeOut TRUE
		FadeOutTime 1.000000
		DoFadeIn TRUE
		FadeInTime 0.200000
	AffectorType "SizeOscillator"
	AffectorContents
		Name "(new) SizeOscillator-1"
		Enabled TRUE
		StartTime 0.000000
		HasInfiniteLifeTime TRUE
		TotalLifeTime 0.000000
		UseYoungParticleAffectThreshold FALSE
		YoungParticleAffectThreshold 0.000000
		UseOldParticleAffectThreshold FALSE
		OldParticleAffectThreshold 0.000000
		AffectAttachedParticles TRUE
		numAttachedEmitters 1
		attachedEmitterName "core"
		TransitionPeriod 0.300000
		BeginSizeX 20.000000
		BeginSizeY 20.000000
		EndSizeX 60.000000
		EndSizeY 60.000000
	length 0.000000
